{
	"version" : "1.1",
	"details_url" : "https://bitbucket.org/baotien/icode-update/src/2fa5e09473aa70dafaa54b64d8162c4f2e413252/themes/icodedesigns/details.html",
	"download_url" : "https://bitbucket.org/baotien/icode-update/src/2fa5e09473aa70dafaa54b64d8162c4f2e413252/themes/icodedesigns/icodedesigns.zip"
	}